<?xml version="1.0" encoding="UTF-8"?>
<svg width="121px" height="304px" viewBox="0 0 121 304" version="1.1" xmlns="http://www.w3.org/2000/svg" xmlns:xlink="http://www.w3.org/1999/xlink">
    <title>Group 9</title>
    <defs>
        <polygon id="path-1" points="0 0.0323076923 119.662034 0.0323076923 119.662034 217.393154 0 217.393154"></polygon>
        <polygon id="path-3" points="0.67705 0.992258617 47.5561811 0.992258617 47.5561811 52 0.67705 52"></polygon>
    </defs>
    <g id="Design" stroke="none" stroke-width="1" fill="none" fill-rule="evenodd">
        <g id="Услуга-XL" transform="translate(-1471.000000, -1629.000000)">
            <g id="Group-20" transform="translate(0.000000, 1233.000000)">
                <g id="Group-9" transform="translate(1471.944060, 396.000000)">
                    <g id="Group-3">
                        <mask id="mask-2" fill="white">
                            <use xlink:href="#path-1"></use>
                        </mask>
                        <g id="Clip-2"></g>
                        <path d="M0,209.693154 C19.8496552,191.526231 34.7284138,216.695077 34.7284138,216.695077 C44.7465517,200.313538 59.9688621,200.529308 59.9688621,200.529308 C59.9688621,200.529308 75.1954138,200.740846 84.7597241,217.393154 C84.7597241,217.393154 100.346793,192.655846 119.662034,211.377 L62.7936207,0.0289230769 L0,209.693154 Z" id="Fill-1" fill="#F36230" mask="url(#mask-2)"></path>
                    </g>
                    <polygon id="Fill-4" fill="#F36230" points="57.4226227 170 63 170.071613 61.5817278 268 56 267.919962"></polygon>
                    <g id="Group-8" transform="translate(18.000000, 252.000000)">
                        <mask id="mask-4" fill="white">
                            <use xlink:href="#path-3"></use>
                        </mask>
                        <g id="Clip-7"></g>
                        <path d="M0.67705,26.0429615 C0.90655,34.9233462 5.91305,51.7575769 23.20205,51.9987308 C30.01905,52.0918077 35.8033,49.6210385 39.9258,44.8571923 C50.6103,32.5329615 47.09555,8.83219231 46.6493,6.17103846 L46.39855,6.21334615 C46.0628,3.29834615 43.9633,1.03911538 41.36655,0.992258617 C38.50205,0.958730769 36.1518,3.62834615 36.09655,6.96219231 C36.1008,7.27103846 36.1348,7.57142308 36.1688,7.86334615 L35.8968,7.90565385 C36.7893,13.3591154 37.93255,30.5487308 31.6723,37.7664231 C29.63655,40.1229615 26.99305,41.1933462 23.35505,41.1425769 C12.4028,40.9902692 11.6208,27.3037308 11.57405,25.7679615 L11.28505,25.7721923 C11.24255,22.5356538 9.01555,19.9083462 6.2063,19.8660385 C3.35455,19.8152692 0.99155,22.5018077 0.94905,25.8314231 C0.94905,25.9118077 0.95755,25.9710385 0.95755,26.0387308 L0.67705,26.0429615 Z" id="Fill-6" fill="#F36230" mask="url(#mask-4)"></path>
                    </g>
                </g>
            </g>
        </g>
    </g>
</svg>