<?xml version="1.0" encoding="UTF-8"?>
<svg width="94px" height="500px" viewBox="0 0 94 500" version="1.1" xmlns="http://www.w3.org/2000/svg" xmlns:xlink="http://www.w3.org/1999/xlink">
    <title>Group 130</title>
    <g id="Symbols" stroke="none" stroke-width="1" fill="none" fill-rule="evenodd">
        <g id="Футер" transform="translate(-96.000000, -92.000000)">
            <g id="Group-130" transform="translate(96.000000, 92.000000)">
                <g id="Group-32" transform="translate(0.000000, 0.402826)" fill="#F36230">
                    <polygon id="Fill-1" points="7.0176087 498.11087 86.9745652 498.11087 86.9745652 241.58913 7.0176087 241.58913"></polygon>
                    <polygon id="Fill-2" points="7.02173913 136.771087 86.9786957 136.771087 86.9786957 120.563261 7.02173913 120.563261"></polygon>
                    <polygon id="Fill-46" points="-3.8616453e-14 246.983478 94.0004348 246.983478 94.0004348 238.342609 -3.8616453e-14 238.342609"></polygon>
                    <polygon id="Fill-47" points="-3.8616453e-14 229.693478 94.0004348 229.693478 94.0004348 136.766957 -3.8616453e-14 136.766957"></polygon>
                    <polygon id="Fill-48" points="86.4442174 136.768196 90.2194348 136.768196 94.002913 136.768196 90.2194348 111.200804"></polygon>
                    <polygon id="Fill-49" points="2.17217548e-14 136.768196 3.77108696 136.768196 7.55043478 136.768196 3.77108696 111.200804"></polygon>
                    <polygon id="Fill-50" points="3.77108696 238.346739 90.221087 238.346739 90.221087 229.697609 3.77108696 229.697609"></polygon>
                    <polygon id="Fill-107" points="26.4281739 82.0779348 25.0692609 93.9116304 26.4281739 93.9116304 27.7788261 93.9116304"></polygon>
                    <polygon id="Fill-108" points="67.5871304 82.0779348 66.2406087 93.9116304 67.5871304 93.9116304 68.9336522 93.9116304"></polygon>
                    <polygon id="Fill-109" points="27.6036957 93.9136957 66.3554348 93.9136957 66.3554348 75.5415217 27.6036957 75.5415217"></polygon>
                    <polygon id="Fill-125" points="68.9344783 93.9124565 25.0651304 93.9124565 7.05643478 120.562022 46.2377391 120.562022 47.7536087 120.562022 86.934913 120.562022"></polygon>
                    <polygon id="Fill-126" points="46.6528478 24.3931087 27.6858913 75.5402826 46.9998043 75.5402826 66.309587 75.5402826"></polygon>
                    <polygon id="Fill-127" points="45.6908696 27.6326087 47.6941304 27.6326087 47.6941304 5.32413043 45.6908696 5.32413043"></polygon>
                    <path d="M49.3917391,3.16391304 C49.3917391,4.655 48.1815217,5.86934783 46.6986957,5.86934783 C45.2034783,5.86934783 43.985,4.655 43.985,3.16391304 C43.985,1.67282609 45.2034783,0.46673913 46.6986957,0.46673913 C48.1815217,0.46673913 49.3917391,1.67282609 49.3917391,3.16391304" id="Fill-128"></path>
                </g>
                <g id="Group-29" transform="translate(4.968913, 77.947609)" fill="#FFFFFF">
                    <polygon id="Fill-3" points="9.25630435 223.464783 13.5767391 223.464783 13.5767391 173.75913 9.25630435 173.75913"></polygon>
                    <polygon id="Fill-4" points="16.0591304 223.464783 20.3878261 223.464783 20.3878261 173.75913 16.0591304 173.75913"></polygon>
                    <polygon id="Fill-5" points="22.8619565 223.464783 27.1865217 223.464783 27.1865217 173.75913 22.8619565 173.75913"></polygon>
                    <polygon id="Fill-6" points="29.6647826 223.464783 33.9893478 223.464783 33.9893478 173.75913 29.6647826 173.75913"></polygon>
                    <polygon id="Fill-7" points="36.4676087 223.464783 40.783913 223.464783 40.783913 173.75913 36.4676087 173.75913"></polygon>
                    <polygon id="Fill-8" points="43.2704348 223.464783 47.5991304 223.464783 47.5991304 173.75913 43.2704348 173.75913"></polygon>
                    <polygon id="Fill-9" points="50.0732609 223.464783 54.3936957 223.464783 54.3936957 173.75913 50.0732609 173.75913"></polygon>
                    <polygon id="Fill-10" points="56.8802174 223.464783 61.1965217 223.464783 61.1965217 173.75913 56.8802174 173.75913"></polygon>
                    <polygon id="Fill-11" points="63.678913 223.464783 68.0034783 223.464783 68.0034783 173.75913 63.678913 173.75913"></polygon>
                    <polygon id="Fill-12" points="70.4817391 223.464783 74.8063043 223.464783 74.8063043 173.75913 70.4817391 173.75913"></polygon>
                    <polygon id="Fill-13" points="9.25630435 229.235 74.8063043 229.235 74.8063043 227.070652 9.25630435 227.070652"></polygon>
                    <polygon id="Fill-14" points="9.25630435 285.417174 13.5767391 285.417174 13.5767391 235.715652 9.25630435 235.715652"></polygon>
                    <polygon id="Fill-15" points="16.0591304 285.417174 20.3878261 285.417174 20.3878261 235.715652 16.0591304 235.715652"></polygon>
                    <polygon id="Fill-16" points="22.8619565 285.417174 27.1865217 285.417174 27.1865217 235.715652 22.8619565 235.715652"></polygon>
                    <polygon id="Fill-17" points="29.6647826 285.417174 33.9893478 285.417174 33.9893478 235.715652 29.6647826 235.715652"></polygon>
                    <polygon id="Fill-18" points="36.4676087 285.417174 40.783913 285.417174 40.783913 235.715652 36.4676087 235.715652"></polygon>
                    <polygon id="Fill-19" points="43.2704348 285.417174 47.5991304 285.417174 47.5991304 235.715652 43.2704348 235.715652"></polygon>
                    <polygon id="Fill-20" points="50.0732609 285.417174 54.3936957 285.417174 54.3936957 235.715652 50.0732609 235.715652"></polygon>
                    <polygon id="Fill-21" points="56.8802174 285.417174 61.1965217 285.417174 61.1965217 235.715652 56.8802174 235.715652"></polygon>
                    <polygon id="Fill-22" points="63.678913 285.417174 68.0034783 285.417174 68.0034783 235.715652 63.678913 235.715652"></polygon>
                    <polygon id="Fill-23" points="70.4817391 285.417174 74.8063043 285.417174 74.8063043 235.715652 70.4817391 235.715652"></polygon>
                    <polygon id="Fill-24" points="9.25630435 291.17913 74.8063043 291.17913 74.8063043 289.023043 9.25630435 289.023043"></polygon>
                    <polygon id="Fill-25" points="9.25630435 347.365435 13.5767391 347.365435 13.5767391 297.663913 9.25630435 297.663913"></polygon>
                    <polygon id="Fill-26" points="16.0591304 347.365435 20.3878261 347.365435 20.3878261 297.663913 16.0591304 297.663913"></polygon>
                    <polygon id="Fill-27" points="22.8619565 347.365435 27.1865217 347.365435 27.1865217 297.663913 22.8619565 297.663913"></polygon>
                    <polygon id="Fill-28" points="29.6647826 347.365435 33.9893478 347.365435 33.9893478 297.663913 29.6647826 297.663913"></polygon>
                    <polygon id="Fill-29" points="36.4676087 347.365435 40.783913 347.365435 40.783913 297.663913 36.4676087 297.663913"></polygon>
                    <polygon id="Fill-30" points="43.2704348 347.365435 47.5991304 347.365435 47.5991304 297.663913 43.2704348 297.663913"></polygon>
                    <polygon id="Fill-31" points="50.0732609 347.365435 54.3936957 347.365435 54.3936957 297.663913 50.0732609 297.663913"></polygon>
                    <polygon id="Fill-32" points="56.8802174 347.365435 61.1965217 347.365435 61.1965217 297.663913 56.8802174 297.663913"></polygon>
                    <polygon id="Fill-33" points="63.678913 347.365435 68.0034783 347.365435 68.0034783 297.663913 63.678913 297.663913"></polygon>
                    <polygon id="Fill-34" points="70.4817391 347.365435 74.8063043 347.365435 74.8063043 297.663913 70.4817391 297.663913"></polygon>
                    <polygon id="Fill-35" points="9.25630435 353.131522 74.8063043 353.131522 74.8063043 350.967174 9.25630435 350.967174"></polygon>
                    <polygon id="Fill-36" points="9.25630435 409.317826 13.5767391 409.317826 13.5767391 359.608043 9.25630435 359.608043"></polygon>
                    <polygon id="Fill-37" points="16.0591304 409.317826 20.3878261 409.317826 20.3878261 359.608043 16.0591304 359.608043"></polygon>
                    <polygon id="Fill-38" points="22.8619565 409.317826 27.1865217 409.317826 27.1865217 359.608043 22.8619565 359.608043"></polygon>
                    <polygon id="Fill-39" points="29.6647826 409.317826 33.9893478 409.317826 33.9893478 359.608043 29.6647826 359.608043"></polygon>
                    <polygon id="Fill-40" points="36.4676087 409.317826 40.783913 409.317826 40.783913 359.608043 36.4676087 359.608043"></polygon>
                    <polygon id="Fill-41" points="43.2704348 409.317826 47.5991304 409.317826 47.5991304 359.608043 43.2704348 359.608043"></polygon>
                    <polygon id="Fill-42" points="50.0732609 409.317826 54.3936957 409.317826 54.3936957 359.608043 50.0732609 359.608043"></polygon>
                    <polygon id="Fill-43" points="56.8802174 409.317826 61.1965217 409.317826 61.1965217 359.608043 56.8802174 359.608043"></polygon>
                    <polygon id="Fill-44" points="63.678913 409.317826 68.0034783 409.317826 68.0034783 359.608043 63.678913 359.608043"></polygon>
                    <polygon id="Fill-45" points="70.4817391 409.317826 74.8063043 409.317826 74.8063043 359.608043 70.4817391 359.608043"></polygon>
                    <polygon id="Fill-51" points="0.962391304 159.170435 3.16804348 159.170435 3.16804348 153.780217 0.962391304 153.780217"></polygon>
                    <polygon id="Fill-52" points="5.17543478 159.170435 7.37282609 159.170435 7.37282609 153.780217 5.17543478 153.780217"></polygon>
                    <polygon id="Fill-53" points="9.38021739 159.170435 11.5858696 159.170435 11.5858696 153.780217 9.38021739 153.780217"></polygon>
                    <polygon id="Fill-54" points="13.5808696 159.170435 15.7947826 159.170435 15.7947826 153.780217 13.5808696 153.780217"></polygon>
                    <polygon id="Fill-55" points="17.7897826 159.170435 20.0036957 159.170435 20.0036957 153.780217 17.7897826 153.780217"></polygon>
                    <polygon id="Fill-56" points="21.9986957 159.170435 24.196087 159.170435 24.196087 153.780217 21.9986957 153.780217"></polygon>
                    <polygon id="Fill-57" points="26.2034783 159.170435 28.4091304 159.170435 28.4091304 153.780217 26.2034783 153.780217"></polygon>
                    <polygon id="Fill-58" points="30.4123913 159.170435 32.6180435 159.170435 32.6180435 153.780217 30.4123913 153.780217"></polygon>
                    <polygon id="Fill-59" points="34.6213043 159.170435 36.8269565 159.170435 36.8269565 153.780217 34.6213043 153.780217"></polygon>
                    <polygon id="Fill-60" points="38.826087 159.170435 41.0317391 159.170435 41.0317391 153.780217 38.826087 153.780217"></polygon>
                    <polygon id="Fill-61" points="43.0308696 159.170435 45.2365217 159.170435 45.2365217 153.780217 43.0308696 153.780217"></polygon>
                    <polygon id="Fill-62" points="47.2356522 159.170435 49.4371739 159.170435 49.4371739 153.780217 47.2356522 153.780217"></polygon>
                    <polygon id="Fill-63" points="51.4445652 159.170435 53.646087 159.170435 53.646087 153.780217 51.4445652 153.780217"></polygon>
                    <polygon id="Fill-64" points="55.6493478 159.170435 57.8591304 159.170435 57.8591304 153.780217 55.6493478 153.780217"></polygon>
                    <polygon id="Fill-65" points="59.85 159.170435 62.063913 159.170435 62.063913 153.780217 59.85 153.780217"></polygon>
                    <polygon id="Fill-66" points="64.058913 159.170435 66.2686957 159.170435 66.2686957 153.780217 64.058913 153.780217"></polygon>
                    <polygon id="Fill-67" points="68.276087 159.170435 70.4776087 159.170435 70.4776087 153.780217 68.276087 153.780217"></polygon>
                    <polygon id="Fill-68" points="72.4808696 159.170435 74.6865217 159.170435 74.6865217 153.780217 72.4808696 153.780217"></polygon>
                    <polygon id="Fill-69" points="76.6856522 159.170435 78.8954348 159.170435 78.8954348 153.780217 76.6856522 153.780217"></polygon>
                    <polygon id="Fill-70" points="80.8945652 159.170435 83.096087 159.170435 83.096087 153.780217 80.8945652 153.780217"></polygon>
                    <path d="M42.0308913,140.268739 C22.9317609,140.268739 7.4508913,124.783739 7.4508913,105.684609 C7.4508913,86.5978696 22.9317609,71.1128696 42.0308913,71.1128696 C61.1217609,71.1128696 76.6067609,86.5978696 76.6067609,105.684609 C76.6067609,124.783739 61.1217609,140.268739 42.0308913,140.268739 L42.0308913,140.268739 Z M3.67154348,143.51113 L80.3902391,143.51113 L80.3902391,67.8746087 L3.67154348,67.8746087 L3.67154348,143.51113 Z" id="Fill-71"></path>
                    <path d="M42.0308913,74.9967174 C25.1043696,74.9967174 11.3335,88.7717174 11.3335,105.685848 C11.3335,122.62063 25.1043696,136.38737 42.0308913,136.38737 C58.957413,136.38737 72.7241522,122.62063 72.7241522,105.685848 C72.7241522,88.7717174 58.957413,74.9967174 42.0308913,74.9967174 M42.0308913,138.543457 C23.9065435,138.543457 9.17741304,123.806065 9.17741304,105.685848 C9.17741304,87.5738913 23.9065435,72.8447609 42.0308913,72.8447609 C60.1428478,72.8447609 74.8802391,87.5738913 74.8802391,105.685848 C74.8802391,123.806065 60.1428478,138.543457 42.0308913,138.543457" id="Fill-73"></path>
                    <polygon id="Fill-75" points="41.3084783 83.2571739 42.7582609 83.2571739 42.7582609 77.3423913 41.3084783 77.3423913"></polygon>
                    <polygon id="Fill-77" points="26.6706304 89.3202391 25.6545435 90.3363261 21.470413 86.1604565 22.4988913 85.1361087"></polygon>
                    <polygon id="Fill-78" points="13.6882609 106.412391 19.5947826 106.412391 19.5947826 104.975 13.6882609 104.975"></polygon>
                    <polygon id="Fill-79" points="25.6541304 121.052717 26.6702174 122.064674 22.4984783 126.240543 21.47 125.224457"></polygon>
                    <polygon id="Fill-80" points="41.3084783 134.032609 42.7582609 134.032609 42.7582609 128.126087 41.3084783 128.126087"></polygon>
                    <polygon id="Fill-81" points="57.3866087 122.065087 58.4026957 121.05313 62.5868261 125.22487 61.5624783 126.240957"></polygon>
                    <polygon id="Fill-82" points="64.4636957 106.412391 70.3743478 106.412391 70.3743478 104.975 64.4636957 104.975"></polygon>
                    <polygon id="Fill-83" points="58.4031087 90.3363261 57.3870217 89.3202391 61.5628913 85.1361087 62.5872391 86.1604565"></polygon>
                    <path d="M43.8255652,105.684609 C43.8255652,106.684174 43.0242609,107.489609 42.0288261,107.489609 C41.0333913,107.489609 40.2362174,106.684174 40.2362174,105.684609 C40.2362174,104.705696 41.0333913,103.89613 42.0288261,103.89613 C43.0242609,103.89613 43.8255652,104.705696 43.8255652,105.684609" id="Fill-84"></path>
                    <polygon id="Fill-85" points="53.7927174 93.9306304 42.0292391 104.591283 42.578587 105.14063 43.1320652 105.685848"></polygon>
                    <polygon id="Fill-86" points="29.3975435 83.3988478 40.6695 104.670587 41.3468913 104.282326 42.0325435 103.898196"></polygon>
                    <polygon id="Fill-87" points="5.13826087 57.4667391 7.14978261 57.4667391 7.14978261 44.7821739 5.13826087 44.7821739"></polygon>
                    <polygon id="Fill-88" points="8.91347826 57.4667391 10.9208696 57.4667391 10.9208696 44.7821739 8.91347826 44.7821739"></polygon>
                    <polygon id="Fill-89" points="12.6845652 57.4667391 14.7043478 57.4667391 14.7043478 44.7821739 12.6845652 44.7821739"></polygon>
                    <polygon id="Fill-90" points="16.4680435 57.4667391 18.4795652 57.4667391 18.4795652 44.7821739 16.4680435 44.7821739"></polygon>
                    <polygon id="Fill-91" points="20.2432609 57.4667391 22.258913 57.4667391 22.258913 44.7821739 20.2432609 44.7821739"></polygon>
                    <polygon id="Fill-92" points="24.0226087 57.4667391 26.0423913 57.4667391 26.0423913 44.7821739 24.0226087 44.7821739"></polygon>
                    <polygon id="Fill-93" points="27.8019565 57.4667391 29.8217391 57.4667391 29.8217391 44.7821739 27.8019565 44.7821739"></polygon>
                    <polygon id="Fill-94" points="31.5813043 57.4667391 33.5928261 57.4667391 33.5928261 44.7821739 31.5813043 44.7821739"></polygon>
                    <polygon id="Fill-95" points="35.3565217 57.4667391 37.3680435 57.4667391 37.3680435 44.7821739 35.3565217 44.7821739"></polygon>
                    <polygon id="Fill-96" points="39.1317391 57.4667391 41.1515217 57.4667391 41.1515217 44.7821739 39.1317391 44.7821739"></polygon>
                    <polygon id="Fill-97" points="42.9069565 57.4667391 44.9267391 57.4667391 44.9267391 44.7821739 42.9069565 44.7821739"></polygon>
                    <polygon id="Fill-98" points="46.6945652 57.4667391 48.706087 57.4667391 48.706087 44.7821739 46.6945652 44.7821739"></polygon>
                    <polygon id="Fill-99" points="50.4656522 57.4667391 52.4813043 57.4667391 52.4813043 44.7821739 50.4656522 44.7821739"></polygon>
                    <polygon id="Fill-100" points="54.2408696 57.4667391 56.2565217 57.4667391 56.2565217 44.7821739 54.2408696 44.7821739"></polygon>
                    <polygon id="Fill-101" points="58.0243478 57.4667391 60.0358696 57.4667391 60.0358696 44.7821739 58.0243478 44.7821739"></polygon>
                    <polygon id="Fill-102" points="61.7995652 57.4667391 63.8152174 57.4667391 63.8152174 44.7821739 61.7995652 44.7821739"></polygon>
                    <polygon id="Fill-103" points="65.578913 57.4667391 67.5945652 57.4667391 67.5945652 44.7821739 65.578913 44.7821739"></polygon>
                    <polygon id="Fill-104" points="69.3582609 57.4667391 71.373913 57.4667391 71.373913 44.7821739 69.3582609 44.7821739"></polygon>
                    <polygon id="Fill-105" points="73.1376087 57.4667391 75.145 57.4667391 75.145 44.7821739 73.1376087 44.7821739"></polygon>
                    <polygon id="Fill-106" points="76.9128261 57.4667391 78.9284783 57.4667391 78.9284783 44.7821739 76.9128261 44.7821739"></polygon>
                    <polygon id="Fill-110" points="24.1506522 14.373913 25.1254348 14.373913 25.1254348 7.91637287e-14 24.1506522 7.91637287e-14"></polygon>
                    <polygon id="Fill-111" points="26.6330435 14.373913 27.616087 14.373913 27.616087 7.91637287e-14 26.6330435 7.91637287e-14"></polygon>
                    <polygon id="Fill-112" points="29.1195652 14.373913 30.0984783 14.373913 30.0984783 7.91637287e-14 29.1195652 7.91637287e-14"></polygon>
                    <polygon id="Fill-113" points="31.6019565 14.373913 32.585 14.373913 32.585 7.91637287e-14 31.6019565 7.91637287e-14"></polygon>
                    <polygon id="Fill-114" points="34.0884783 14.373913 35.0591304 14.373913 35.0591304 7.91637287e-14 34.0884783 7.91637287e-14"></polygon>
                    <polygon id="Fill-115" points="36.575 14.373913 37.5456522 14.373913 37.5456522 7.91637287e-14 36.575 7.91637287e-14"></polygon>
                    <polygon id="Fill-116" points="39.0615217 14.373913 40.0321739 14.373913 40.0321739 7.91637287e-14 39.0615217 7.91637287e-14"></polygon>
                    <polygon id="Fill-117" points="41.543913 14.373913 42.5186957 14.373913 42.5186957 7.91637287e-14 41.543913 7.91637287e-14"></polygon>
                    <polygon id="Fill-118" points="44.0304348 14.373913 45.0052174 14.373913 45.0052174 7.91637287e-14 44.0304348 7.91637287e-14"></polygon>
                    <polygon id="Fill-119" points="46.5086957 14.373913 47.4876087 14.373913 47.4876087 7.91637287e-14 46.5086957 7.91637287e-14"></polygon>
                    <polygon id="Fill-120" points="48.9993478 14.373913 49.9741304 14.373913 49.9741304 7.91637287e-14 48.9993478 7.91637287e-14"></polygon>
                    <polygon id="Fill-121" points="51.4817391 14.373913 52.4565217 14.373913 52.4565217 7.91637287e-14 51.4817391 7.91637287e-14"></polygon>
                    <polygon id="Fill-122" points="53.9641304 14.373913 54.9471739 14.373913 54.9471739 7.91637287e-14 53.9641304 7.91637287e-14"></polygon>
                    <polygon id="Fill-123" points="56.4465217 14.373913 57.4254348 14.373913 57.4254348 7.91637287e-14 56.4465217 7.91637287e-14"></polygon>
                    <polygon id="Fill-124" points="58.9371739 14.373913 59.9119565 14.373913 59.9119565 7.91637287e-14 58.9371739 7.91637287e-14"></polygon>
                </g>
            </g>
        </g>
    </g>
</svg>