<?xml version="1.0" encoding="UTF-8"?>
<svg width="14px" height="14px" viewBox="0 0 14 14" version="1.1" xmlns="http://www.w3.org/2000/svg" xmlns:xlink="http://www.w3.org/1999/xlink">
    <title>+</title>
    <g id="Design" stroke="none" stroke-width="1" fill="none" fill-rule="evenodd">
        <g id="О-нас-XS" transform="translate(-346.000000, -3080.000000)" fill="#3CAFEC" fill-rule="nonzero">
            <g id="Group-41" transform="translate(15.000000, 2793.000000)">
                <g id="Group-2" transform="translate(0.000000, 44.000000)">
                    <g id="Group-16-Copy" transform="translate(0.000000, 226.000000)">
                        <path d="M339.303448,29.6965517 L339.303448,25.3034483 L339.303448,25.3034483 L343.696552,25.3034483 C344.416426,25.3034483 345,24.7198746 345,24 C345,23.2801254 344.416426,22.6965517 343.696552,22.6965517 L339.303448,22.6965517 L339.303448,22.6965517 L339.303448,18.3034483 C339.303448,17.5835737 338.719875,17 338,17 C337.280125,17 336.696552,17.5835737 336.696552,18.3034483 L336.696552,22.6965517 L336.696552,22.6965517 L332.303448,22.6965517 C331.583574,22.6965517 331,23.2801254 331,24 C331,24.7198746 331.583574,25.3034483 332.303448,25.3034483 L336.696552,25.3034483 L336.696552,25.3034483 L336.696552,29.6965517 C336.696552,30.4164263 337.280125,31 338,31 C338.719875,31 339.303448,30.4164263 339.303448,29.6965517 Z" id="+"></path>
                    </g>
                </g>
            </g>
        </g>
    </g>
</svg>